{
  "project_info": {
    "project_number": "81354655183",
    "firebase_url": "https://frameworkformulario.firebaseio.com",
    "project_id": "frameworkformulario",
    "storage_bucket": "frameworkformulario.appspot.com"
  },
  "client": [
    {
      "client_info": {
        "mobilesdk_app_id": "1:81354655183:android:4fc590eabb63b574",
        "android_client_info": {
          "package_name": "com.example.frameworkformulario"
        }
      },
      "oauth_client": [
        {
          "client_id": "81354655183-ouqt7l6mhd7nv8qhm3me55gv4jrc219j.apps.googleusercontent.com",
          "client_type": 3
        }
      ],
      "api_key": [
        {
          "current_key": "AIzaSyDj7r5361J9ONW75M9VmiQGgu2uKelpMbw"
        }
      ],
      "services": {
        "analytics_service": {
          "status": 1
        },
        "appinvite_service": {
          "status": 1,
          "other_platform_oauth_client": []
        },
        "ads_service": {
          "status": 2
        }
      }
    }
  ],
  "configuration_version": "1"
}